<?xml version="1.0" encoding="utf-8"?>
<!-- Generator: Adobe Illustrator 22.0.1, SVG Export Plug-In . SVG Version: 6.00 Build 0)  -->
<svg version="1.1" id="Layer_1" xmlns="http://www.w3.org/2000/svg" xmlns:xlink="http://www.w3.org/1999/xlink" x="0px" y="0px"
	 viewBox="0 0 30 30" style="enable-background:new 0 0 30 30;" xml:space="preserve">
<path style="fill:#FFF" d="M14.99,25.71c2.04,0,3.93-0.5,5.65-1.51s3.1-2.37,4.1-4.1s1.51-3.61,1.51-5.65s-0.5-3.92-1.51-5.65s-2.37-3.09-4.1-4.09
	s-3.61-1.51-5.65-1.51c1.67,2.9,2.5,6.65,2.5,11.25c0,2.33-0.17,4.43-0.52,6.3S15.97,24.26,14.99,25.71z"/>
</svg>
